A D/01.setup////
A D/02.config////
A D/04.quotas////
A D/05.fastfs////
A D/05.fsck////
A D/06.lpd////
A D/06.nfs////
A D/07.sendmailop////
A D/08.timedop////
A D/10.newsop////
A D/11.named////
A D/14.fastfs////
A D/15.net////
A D/16.security////
A D/16.sendmail////
A D/17.password////
A D/18.net////
A D/20.termdesc////
A D/22.timed////
A D/config////
R D/22.timed////
R D/20.termdesc////
R D/16.sendmail////
R D/16.security////
R D/15.net////
R D/14.fastfs////
R D/11.named////
R D/10.newsop////
R D/08.timedop////
R D/07.sendmailop////
R D/06.lpd////
R D/05.fsck////
R D/02.config////
