A D/common////
A D/ffs////
A D/fifofs////
A D/hfs////
A D/kernfs////
A D/lfs////
A D/msdosfs////
A D/nfs////
A D/nullfs////
A D/psshfs////
A D/ptyfs////
A D/puffs////
A D/tmpfs////
A D/umapfs////
A D/union////
A D/vfs////
A D/zfs////
