A D/accf_data////
A D/accf_dataready////
A D/accf_http////
A D/accf_httpready////
A D/acpiacad////
A D/acpibat////
A D/acpibut////
A D/acpicpu////
A D/acpidalb////
A D/acpifan////
A D/acpilid////
A D/acpipmtr////
A D/acpitz////
A D/acpiverbose////
A D/acpivga////
A D/acpiwdrt////
A D/acpiwmi////
A D/adosfs////
A D/aibs////
A D/aio////
A D/amdtemp////
A D/aps////
A D/arch////
A D/asus////
A D/ath////
A D/ath_hal////
A D/ati_pcigart////
A D/au8522////
A D/auvitek////
A D/azalia////
A D/bpf////
A D/ccd////
A D/cd9660////
A D/cgd////
A D/chfs////
A D/cir////
A D/coda////
A D/coda5////
A D/compat////
A D/compat_aoutm68k////
A D/compat_freebsd////
A D/compat_ibcs2////
A D/compat_irix////
A D/compat_linux////
A D/compat_linux32////
A D/compat_netbsd32////
A D/compat_ossaudio////
A D/compat_sunos////
A D/compat_sunos32////
A D/compat_svr4////
A D/coram////
A D/coredump////
A D/coretemp////
A D/cx24227////
A D/cxdtv////
A D/dbcool////
A D/dirhash////
A D/dm////
A D/drm////
A D/dtrace////
A D/dtv////
A D/dtv_math////
A D/efs////
A D/emdtv////
A D/est////
A D/example////
A D/exec_aout////
A D/exec_ecoff////
A D/exec_elf32////
A D/exec_elf64////
A D/exec_script////
A D/ext2fs////
A D/fdesc////
A D/ffs////
A D/filecore////
A D/filecorefs////
A D/filemon////
A D/finsio////
A D/flash////
A D/fss////
A D/fujbp////
A D/fujhk////
A D/gpio////
A D/gpioiic////
A D/gpioow////
A D/gpiosim////
A D/hdafg////
A D/hdaudio////
A D/hfs////
A D/hpacel////
A D/hpet////
A D/hpqlb////
A D/i915drm////
A D/if_alc////
A D/if_ath_pci////
A D/if_axe////
A D/if_cas////
A D/if_rum////
A D/iic////
A D/ir////
A D/irmce////
A D/iscsi////
A D/itesio////
A D/kernfs////
A D/ksem////
A D/layerfs////
A D/lfs////
A D/lg3303////
A D/lm////
A D/lm_isa////
A D/lm_isa_common////
A D/lm_wbsio////
A D/mach64drm////
A D/mfs////
A D/mgadrm////
A D/miiverbose////
A D/miniroot////
A D/mqueue////
A D/msdos////
A D/msdosfs////
A D/mt2131////
A D/nand////
A D/nandemulator////
A D/ndis////
A D/nfs////
A D/nfsserver////
A D/nilfs////
A D/npf////
A D/npf_alg_icmp////
A D/nsclpcsio////
A D/nsmb////
A D/ntfs////
A D/null////
A D/nullfs////
A D/nxt2k////
A D/odcm////
A D/onewire////
A D/overlay////
A D/pad////
A D/padlock////
A D/panic////
A D/pciverbose////
A D/pf////
A D/portal////
A D/powernow////
A D/ppp_bsdcomp////
A D/ppp_deflate////
A D/procfs////
A D/pseye////
A D/ptyfs////
A D/pud////
A D/puffs////
A D/putter////
A D/pwdog////
A D/r128drm////
A D/radeondrm////
A D/raidframe////
A D/savagedrm////
A D/scsiverbose////
A D/sdtemp////
A D/secmodel_bsd44////
A D/secmodel_extensions////
A D/secmodel_overlay////
A D/securechroot////
A D/securelevel////
A D/sisdrm////
A D/smbfs////
A D/smsc////
A D/solaris////
A D/spdmem////
A D/suser////
A D/swsensor////
A D/sysvbfs////
A D/tdfxdrm////
A D/thinkpad////
A D/tmpfs////
A D/tprof////
A D/tprof_amdpmi////
A D/tprof_pmi////
A D/tvpll////
A D/uaudio////
A D/udf////
A D/umap////
A D/umapfs////
A D/union////
A D/unionfs////
A D/usbverbose////
A D/uvideo////
A D/v7fs////
A D/vboxdrm////
A D/viac7temp////
A D/viadrm////
A D/vmt////
A D/vnd////
A D/wbsio////
A D/wmidell////
A D/wmieeepc////
A D/wmihp////
A D/wmimsi////
A D/xc3028////
A D/xc5k////
A D/xldscripts////
A D/zfs////
A D/zl10353////
R D/umapfs////
R D/securechroot////
R D/portal////
R D/nullfs////
R D/msdosfs////
R D/filecorefs////
R D/dirhash////
R D/compat_irix////
R D/accf_http////
R D/accf_data////
