A D/arm////
A D/arm32////
A D/at91////
A D/conf////
A D/dev////
A D/ep93xx////
A D/footbridge////
A D/fpe-arm////
A D/gemini////
A D/imx////
A D/include////
A D/iomd////
A D/ixp12x0////
A D/mainbus////
A D/marvell////
A D/mpcore////
A D/ofw////
A D/omap////
A D/pic////
A D/s3c2xx0////
A D/sa11x0////
A D/vfp////
A D/xscale////
R D/dev////
