A D/man-adosfs-catman////
A D/man-adosfs-man////
A D/man-amd-catman////
A D/man-amd-info////
A D/man-amd-man////
A D/man-audio-catman////
A D/man-audio-man////
A D/man-bind-catman////
A D/man-bind-man////
A D/man-bootserver-catman////
A D/man-bootserver-man////
A D/man-c-catman////
A D/man-c-info////
A D/man-c-man////
A D/man-computil-info////
A D/man-cron-catman////
A D/man-cron-man////
A D/man-crypto-catman////
A D/man-crypto-man////
A D/man-cvs-info////
A D/man-cxx-info////
A D/man-debug-catman////
A D/man-debug-info////
A D/man-debug-man////
A D/man-dhclient-catman////
A D/man-dhclient-man////
A D/man-dhcpd-catman////
A D/man-dhcpd-man////
A D/man-ext2fs-catman////
A D/man-ext2fs-man////
A D/man-filecorefs-catman////
A D/man-filecorefs-man////
A D/man-fortran-info////
A D/man-games-catman////
A D/man-games-man////
A D/man-gnats-catman////
A D/man-gnats-info////
A D/man-gnats-man////
A D/man-groff-catman////
A D/man-groff-man////
A D/man-hesiod-catman////
A D/man-hesiod-man////
A D/man-info-share////
A D/man-ipf-catman////
A D/man-ipf-man////
A D/man-isdn-catman////
A D/man-isdn-man////
A D/man-krb4-info////
A D/man-krb5-catman////
A D/man-krb5-info////
A D/man-krb5-man////
A D/man-locale-catman////
A D/man-locale-man////
A D/man-lpr-catman////
A D/man-lpr-man////
A D/man-mail-catman////
A D/man-mail-man////
A D/man-mailwrapper-catman////
A D/man-mailwrapper-man////
A D/man-man-catman////
A D/man-man-man////
A D/man-miscfs-catman////
A D/man-miscfs-man////
A D/man-net-catman////
A D/man-net-man////
A D/man-netutil-catman////
A D/man-netutil-man////
A D/man-nfsclient-catman////
A D/man-nfsclient-man////
A D/man-nfsserver-catman////
A D/man-nfsserver-man////
A D/man-nis-catman////
A D/man-nis-man////
A D/man-ntfs-catman////
A D/man-ntfs-man////
A D/man-ntp-catman////
A D/man-ntp-man////
A D/man-pkgutil-catman////
A D/man-pkgutil-man////
A D/man-postfix-catman////
A D/man-postfix-man////
A D/man-ppp-catman////
A D/man-ppp-man////
A D/man-rc-catman////
A D/man-rc-man////
A D/man-rcs-catman////
A D/man-rcs-man////
A D/man-reference-catman////
A D/man-reference-man////
A D/man-router-catman////
A D/man-router-man////
A D/man-secsh-catman////
A D/man-secsh-man////
A D/man-sendmail-catman////
A D/man-sendmail-man////
A D/man-shlib-catman////
A D/man-shlib-man////
A D/man-slip-catman////
A D/man-slip-man////
A D/man-sup-catman////
A D/man-sup-man////
A D/man-sushi-catman////
A D/man-sushi-man////
A D/man-sys-catman////
A D/man-sys-info////
A D/man-sys-man////
A D/man-sysutil-catman////
A D/man-sysutil-man////
A D/man-texinfo-info////
A D/man-timed-catman////
A D/man-timed-man////
A D/man-tn3270-catman////
A D/man-tn3270-man////
A D/man-util-catman////
A D/man-util-info////
A D/man-util-man////
A D/man-uucp-catman////
A D/man-uucp-info////
A D/man-uucp-man////
R D/man-tn3270-man////
R D/man-tn3270-catman////
R D/man-sushi-man////
R D/man-sushi-catman////
R D/man-krb4-info////
