A D/adjacent_find////
A D/binary_search////
A D/copy////
A D/count////
A D/count_if////
A D/equal////
A D/equal_range////
A D/fill////
A D/find////
A D/find_end////
A D/find_first_of////
A D/find_if////
A D/heap////
A D/includes////
A D/inplace_merge////
A D/iter_swap////
A D/lexicographical_compare////
A D/lower_bound////
A D/max_element////
A D/merge////
A D/min_element////
A D/mismatch////
A D/next_permutation////
A D/nth_element////
A D/partial_sort////
A D/partial_sort_copy////
A D/partition////
A D/prev_permutation////
A D/remove////
A D/remove_if////
A D/replace////
A D/replace_copy////
A D/replace_copy_if////
A D/replace_if////
A D/rotate////
A D/search////
A D/search_n////
A D/set_difference////
A D/set_intersection////
A D/set_symmetric_difference////
A D/set_union////
A D/stable_sort////
A D/swap_ranges////
A D/unique////
A D/unique_copy////
A D/upper_bound////
