A D/adosfs////
A D/cd9660////
A D/devfs////
A D/efs////
A D/filecorefs////
A D/hfs////
A D/hfsp////
A D/msdosfs////
A D/nilfs////
A D/ntfs////
A D/ptyfs////
A D/puffs////
A D/smbfs////
A D/sysvbfs////
A D/tmpfs////
A D/udf////
A D/union////
A D/unionfs////
A D/v7fs////
R D/hfsp////
R D/devfs////
