A D/exceptions////
A D/extractors_arithmetic////
A D/extractors_character////
A D/extractors_other////
A D/get////
A D/getline////
A D/ignore////
A D/peek////
A D/putback////
A D/read////
A D/readsome////
A D/seekg////
A D/sentry////
A D/tellg////
A D/ws////
