A D/ahdilabel////
A D/binpatch////
A D/bootpref////
A D/bootxx////
A D/bootxxx////
A D/chg_pid////
A D/edahdi////
A D/installboot////
A D/keymaps////
A D/libsa////
A D/loadbsd////
A D/loadkmap////
A D/msconfig////
A D/rawwrite////
A D/tostools////
A D/xxboot////
R D/rawwrite////
R D/loadbsd////
R D/chg_pid////
