A D/FreeType////
A D/Mesa////
A D/X-TrueType////
A D/Xpm////
A D/expat////
A D/fontconfig////
A D/fonts////
A D/freetype2////
A D/ogl-sample////
A D/regex////
A D/rman////
A D/x86emu////
A D/zlib////
R D/X-TrueType////
R D/FreeType////
