A D/array_cache////
A D/dri////
A D/drivers////
A D/include////
A D/main////
A D/math////
A D/shader////
A D/sparc////
A D/src////
A D/swrast////
A D/swrast_setup////
A D/tnl////
A D/x86////
R D/src////
R D/include////
R D/dri////
