A D/adosfs////
A D/altq////
A D/arch////
A D/boot////
A D/cfs////
A D/coda////
A D/codeset////
A D/common////
A D/compat////
A D/conf////
A D/contrib////
A D/crypto////
A D/ddb////
A D/dev////
A D/dist////
A D/external////
A D/filecorefs////
A D/fs////
A D/gdbscripts////
A D/ipkdb////
A D/isofs////
A D/kern////
A D/kgdb////
A D/kpi////
A D/lib////
A D/libkern////
A D/lkm////
A D/miscfs////
A D/modules////
A D/msdosfs////
A D/net////
A D/net80211////
A D/netatalk////
A D/netbt////
A D/netccitt////
A D/netinet////
A D/netinet6////
A D/netipsec////
A D/netisdn////
A D/netiso////
A D/netkey////
A D/netmpls////
A D/netnatm////
A D/netns////
A D/netsmb////
A D/nfs////
A D/ntfs////
A D/opencrypto////
A D/pcfs////
A D/rump////
A D/scsi////
A D/secmodel////
A D/smbfs////
A D/stand////
A D/sys////
A D/ufs////
A D/uvm////
A D/vm////
R D/vm////
R D/smbfs////
R D/scsi////
R D/pcfs////
R D/ntfs////
R D/netns////
R D/netccitt////
R D/msdosfs////
R D/lkm////
R D/libkern////
R D/kpi////
R D/kgdb////
R D/isofs////
R D/filecorefs////
R D/contrib////
R D/codeset////
R D/cfs////
R D/boot////
R D/adosfs////
