A D/01.cacm////
A D/02.implement////
A D/03.iosys////
A D/04.uprog////
A D/05.sysman////
A D/06.Clang////
A D/20.ipctut////
A D/21.ipc////
R D/06.Clang////
R D/04.uprog////
R D/03.iosys////
R D/02.implement////
R D/01.cacm////
