A D/ag10e////
A D/apm////
A D/ark////
A D/ati////
A D/atimisc////
A D/chips////
A D/cirrus////
A D/cirrus_alpine////
A D/cirrus_laguna////
A D/cyrix////
A D/dummy////
A D/fbdev////
A D/glint////
A D/i128////
A D/i740////
A D/i810////
A D/imstt////
A D/mga////
A D/neomagic////
A D/newport////
A D/nsc////
A D/nv////
A D/pnozz////
A D/r128////
A D/radeon////
A D/rendition////
A D/s3////
A D/s3virge////
A D/savage////
A D/siliconmotion////
A D/sis////
A D/sunbw2////
A D/suncg14////
A D/suncg3////
A D/suncg6////
A D/sunffb////
A D/sunleo////
A D/suntcx////
A D/tdfx////
A D/tga////
A D/trident////
A D/tseng////
A D/vesa////
A D/vga////
A D/via////
A D/vmware////
A D/wsfb////
R D/cirrus_laguna////
R D/cirrus_alpine////
