A D/bin////
A D/common////
A D/compat////
A D/contrib////
A D/crypto////
A D/dist////
A D/distrib////
A D/doc////
A D/etc////
A D/external////
A D/extsrc////
A D/games////
A D/gnu////
A D/include////
A D/lib////
A D/libexec////
A D/regress////
A D/rescue////
A D/sbin////
A D/share////
A D/sys////
A D/tests////
A D/tools////
A D/usr.bin////
A D/usr.sbin////
A D/x11////
R D/contrib////
