A D/Dutch.lproj////
A D/English.lproj////
A D/French.lproj////
A D/German.lproj////
A D/Japanese.lproj////
A D/Portuguese.lproj////
A D/Spanish.lproj////
A D/Swedish.lproj////
A D/XDarwin.pbproj////
A D/ko.lproj////
R D/XDarwin.pbproj////
