A D/booke////
A D/compile////
A D/conf////
A D/fpu////
A D/ibm4xx////
A D/include////
A D/isa////
A D/marvell////
A D/mpc6xx////
A D/oea////
A D/pci////
A D/pic////
A D/powerpc////
A D/stand////
A D/tools////
R D/mpc6xx////
R D/compile////
