A D/beyond4.3////
A D/bus_dma////
A D/diskperf////
A D/fsinterface////
A D/kernmalloc////
A D/kerntune////
A D/memfs////
A D/newvm////
A D/nqnfs////
A D/pulldown////
A D/px////
A D/relengr////
A D/sushi////
A D/sysperf////
R D/sushi////
