A D/bdftopcf////
A D/fc-cache////
A D/gen_matypes////
A D/makekeys////
A D/makestrs////
A D/mkfontdir////
A D/mkfontscale////
A D/mkg3states////
A D/pswrap////
A D/rgb////
A D/ucs2any////
A D/xkbcomp////
R D/rgb////
R D/mkfontdir////
