A D/cli////
A D/config////
A D/doc////
A D/gdbserver////
A D/mi////
A D/nlm////
A D/osf-share////
A D/po////
A D/rdi-share////
A D/regformats////
A D/signals////
A D/testsuite////
A D/tui////
A D/vx-share////
R D/rdi-share////
R D/nlm////
