A D/base////
A D/comp////
A D/cryptint////
A D/etc////
A D/games////
A D/man////
A D/misc////
A D/modules////
A D/secr////
A D/tests////
A D/text////
A D/xbase////
A D/xbase3////
A D/xbase4////
A D/xcomp////
A D/xcomp3////
A D/xcomp4////
A D/xcontrib////
A D/xcontrib3////
A D/xcontrib4////
A D/xetc////
A D/xfont////
A D/xfont3////
A D/xfont4////
A D/xmisc////
A D/xmisc3////
A D/xmisc4////
A D/xserver////
A D/xserver3////
A D/xserver4////
R D/xserver4////
R D/xserver3////
R D/xmisc4////
R D/xmisc3////
R D/xmisc////
R D/xfont4////
R D/xfont3////
R D/xcontrib4////
R D/xcontrib3////
R D/xcontrib////
R D/xcomp4////
R D/xcomp3////
R D/xbase4////
R D/xbase3////
R D/secr////
R D/cryptint////
