A D/GL////
A D/Xext////
A D/Xfont////
A D/Xserver////
A D/afb////
A D/cfb////
A D/cfb16////
A D/cfb24////
A D/cfb32////
A D/composite////
A D/damage////
A D/dbe////
A D/dix////
A D/fb////
A D/fontbase////
A D/hw////
A D/include////
A D/iplan2p2////
A D/iplan2p4////
A D/iplan2p8////
A D/lbx////
A D/lbxutil////
A D/mfb////
A D/mi////
A D/miext////
A D/os////
A D/printer////
A D/randr////
A D/record////
A D/render////
A D/xfixes////
A D/xinput////
A D/xkb////
A D/xtrap////
R D/xfixes////
R D/lbxutil////
R D/damage////
R D/composite////
