A D/SuperProbe////
A D/XF86Setup////
A D/common////
A D/ddc////
A D/doc////
A D/drivers////
A D/dummylib////
A D/etc////
A D/fbdevhw////
A D/getconfig////
A D/i2c////
A D/input////
A D/int10////
A D/loader////
A D/os-support////
A D/parser////
A D/rac////
A D/ramdac////
A D/reconfig////
A D/scanpci////
A D/sdk////
A D/shadowfb////
A D/vbe////
A D/vgafb////
A D/vgahw////
A D/xaa////
A D/xf1bpp////
A D/xf24_32bpp////
A D/xf4bpp////
A D/xf86cfg////
A D/xf86config////
A D/xf8_16bpp////
A D/xf8_32bpp////
A D/xf8_32wid////
R D/vgafb////
R D/reconfig////
R D/XF86Setup////
R D/SuperProbe////
