A D/biosboot////
A D/biosboot_com0////
A D/biosboot_com0_115200////
A D/biosboot_com0_38400////
A D/biosboot_com0_57600////
A D/biosboot_com0_9600////
A D/biosboot_ps2////
A D/biosboot_resetvideo////
A D/biosboot_ser////
A D/boot////
A D/bootxx////
A D/cdboot////
A D/dosboot////
A D/fatboot////
A D/genprom////
A D/installboot////
A D/lib////
A D/libsa////
A D/mbr////
A D/misc////
A D/netboot////
A D/netboot_3c509////
A D/netboot_3c590////
A D/netboot_3c90xb////
A D/netboot_i82557////
A D/netboot_ne2000_isa////
A D/netboot_pcnet_isapnp////
A D/netboot_pcnet_pci////
A D/netboot_wd80x3////
A D/pxeboot////
A D/pxeboot_com0////
R D/pxeboot_com0////
R D/netboot_wd80x3////
R D/netboot_pcnet_pci////
R D/netboot_pcnet_isapnp////
R D/netboot_ne2000_isa////
R D/netboot_i82557////
R D/netboot_3c90xb////
R D/netboot_3c590////
R D/netboot_3c509////
R D/installboot////
R D/biosboot_ser////
R D/biosboot_resetvideo////
R D/biosboot_ps2////
R D/biosboot_com0_9600////
R D/biosboot_com0_57600////
R D/biosboot_com0_38400////
R D/biosboot_com0_115200////
R D/biosboot_com0////
R D/biosboot////
