A D/alpha////
A D/arm////
A D/armeb////
A D/hppa////
A D/i386////
A D/m68000////
A D/m68k////
A D/mips64eb////
A D/mips64el////
A D/mipseb////
A D/mipsel////
A D/powerpc////
A D/powerpc64////
A D/sh3eb////
A D/sh3el////
A D/sh5el////
A D/sparc////
A D/sparc64////
A D/vax////
A D/x86_64////
R D/sh5el////
