A D/FS////
A D/GL////
A D/GLU////
A D/GLw////
A D/ICE////
A D/OSmesa////
A D/SM////
A D/X11////
A D/XRes////
A D/XTrap////
A D/Xau////
A D/Xaw////
A D/Xaw6////
A D/Xcomposite////
A D/Xcursor////
A D/Xdamage////
A D/Xdmcp////
A D/Xevie////
A D/Xext////
A D/Xfixes////
A D/Xfontcache////
A D/Xft////
A D/Xft1////
A D/Xi////
A D/Xinerama////
A D/Xmu////
A D/Xmuu////
A D/Xp////
A D/Xpm////
A D/XprintAppUtil////
A D/XprintUtil////
A D/Xrandr////
A D/Xrender////
A D/Xss////
A D/Xt////
A D/Xtst////
A D/Xv////
A D/XvMC////
A D/Xxf86dga////
A D/Xxf86misc////
A D/Xxf86vm////
A D/dmx////
A D/dps////
A D/dpstk////
A D/expat////
A D/font////
A D/fontconfig////
A D/fontenc////
A D/freetype2////
A D/lbxutil////
A D/oldX////
A D/psres////
A D/xkbfile////
A D/xkbui////
A D/xlibi18n////
A D/xtrans////
R D/expat////
R D/XprintUtil////
R D/XprintAppUtil////
R D/Xfixes////
R D/Xevie////
R D/Xdamage////
R D/Xcomposite////
