A D/DB////
A D/arch////
A D/atomic////
A D/cdb////
A D/citrus////
A D/compat////
A D/compat-13////
A D/compat-43////
A D/db////
A D/dl////
A D/dlfcn////
A D/gdtoa////
A D/gen////
A D/gmon////
A D/hash////
A D/hp300////
A D/i386////
A D/iconv////
A D/include////
A D/inet////
A D/isc////
A D/locale////
A D/md////
A D/misc////
A D/nameser////
A D/net////
A D/nls////
A D/pc532////
A D/powerpc64////
A D/quad////
A D/regex////
A D/resolv////
A D/rpc////
A D/softfloat////
A D/sparc////
A D/ssp////
A D/stdio////
A D/stdlib////
A D/string////
A D/support////
A D/sys////
A D/termios////
A D/thread-stub////
A D/time////
A D/tls////
A D/uuid////
A D/yp////
R D/support////
R D/sparc////
R D/powerpc64////
R D/pc532////
R D/i386////
R D/hp300////
R D/dl////
R D/compat-13////
R D/DB////
