A D/arm////
A D/common////
A D/cris////
A D/d10v////
A D/erc32////
A D/frv////
A D/h8300////
A D/igen////
A D/iq2000////
A D/m32c////
A D/m32r////
A D/m68hc11////
A D/mcore////
A D/mips////
A D/mn10300////
A D/ppc////
A D/sh////
A D/testsuite////
A D/v850////
