A D/acorn26////
A D/acorn32////
A D/algor////
A D/alpha////
A D/amd64////
A D/amiga////
A D/amigappc////
A D/arc////
A D/arm////
A D/arm26////
A D/arm32////
A D/atari////
A D/ataristand////
A D/bebox////
A D/cats////
A D/cesfic////
A D/cobalt////
A D/da30////
A D/dnard////
A D/dreamcast////
A D/emips////
A D/evbarm////
A D/evbmips////
A D/evbppc////
A D/evbsh3////
A D/evbsh5////
A D/ews4800mips////
A D/hp300////
A D/hp700////
A D/hpc////
A D/hpcarm////
A D/hpcmips////
A D/hpcsh////
A D/hppa////
A D/i386////
A D/ia64////
A D/ibmnws////
A D/iyonix////
A D/landisk////
A D/luna68k////
A D/m68k////
A D/m88k////
A D/mac////
A D/mac68k////
A D/macppc////
A D/mips////
A D/mipsco////
A D/mmeye////
A D/mvme68k////
A D/mvme88k////
A D/mvmeppc////
A D/netwinder////
A D/news////
A D/news68k////
A D/newsmips////
A D/next68k////
A D/ofppc////
A D/openblocks405////
A D/pc532////
A D/pdp10////
A D/pica////
A D/playstation2////
A D/pmax////
A D/pmppc////
A D/powerpc////
A D/prep////
A D/rs6000////
A D/sandpoint////
A D/sbmips////
A D/sgimips////
A D/sh3////
A D/sh5////
A D/shark////
A D/sparc////
A D/sparc64////
A D/sun2////
A D/sun3////
A D/sun3x////
A D/sun68k////
A D/usermode////
A D/vax////
A D/walnut////
A D/x68k////
A D/x86////
A D/x86_64////
A D/xen////
A D/xenamd64////
A D/zaurus////
R D/xenamd64////
R D/x86_64////
R D/walnut////
R D/sun3x////
R D/pmppc////
R D/playstation2////
R D/pica////
R D/pdp10////
R D/pc532////
R D/openblocks405////
R D/news////
R D/mvme88k////
R D/mac////
R D/m88k////
R D/dnard////
R D/da30////
R D/ataristand////
R D/arm32////
R D/arm26////
