A D/config////
A D/gdb.ada////
A D/gdb.arch////
A D/gdb.asm////
A D/gdb.base////
A D/gdb.cp////
A D/gdb.disasm////
A D/gdb.dwarf2////
A D/gdb.fortran////
A D/gdb.gdb////
A D/gdb.hp////
A D/gdb.java////
A D/gdb.mi////
A D/gdb.objc////
A D/gdb.server////
A D/gdb.stabs////
A D/gdb.threads////
A D/gdb.trace////
A D/lib////
