A D/FreeType////
A D/Speedo////
A D/Type1////
A D/X-TrueType////
A D/bitmap////
A D/builtins////
A D/fc////
A D/fontcache////
A D/fontfile////
A D/include////
A D/stubs////
A D/util////
R D/X-TrueType////
