A D/hello-c////
A D/hello-c++////
A D/hello-c++-gnome////
A D/hello-c++-kde////
A D/hello-c++-qt////
A D/hello-c-gnome////
A D/hello-clisp////
A D/hello-csharp////
A D/hello-csharp-forms////
A D/hello-gawk////
A D/hello-guile////
A D/hello-java////
A D/hello-java-awt////
A D/hello-java-swing////
A D/hello-librep////
A D/hello-objc////
A D/hello-objc-gnome////
A D/hello-objc-gnustep////
A D/hello-pascal////
A D/hello-perl////
A D/hello-php////
A D/hello-python////
A D/hello-sh////
A D/hello-smalltalk////
A D/hello-tcl////
A D/hello-tcl-tk////
A D/hello-ycp////
A D/po////
